npc/FutureCore/src/main/resources/sim/logs/vlt_dump.vcd
$version Generated by VerilatedVcd $end
$timescale 1ps $end
 $scope module FutureCore $end
  $var wire 1 D clock $end
  $var wire 1 E reset $end
  $var wire 32 F io_instIn [31:0] $end
  $var wire 32 G io_instAddrOut [31:0] $end
  $var wire 32 H io_debug_pcInstAddr [31:0] $end
  $var wire 5 I io_debug_instDecRs1 [4:0] $end
  $var wire 5 J io_debug_instDecRs2 [4:0] $end
  $var wire 5 K io_debug_instDecRd [4:0] $end
  $var wire 1 L io_debug_instDecWriteEnable $end
  $var wire 1 M io_debug_instDecIsImmidiate $end
  $var wire 1 N io_debug_instDecIsEbreak $end
  $var wire 32 O io_debug_regFileRs1Data [31:0] $end
  $var wire 32 P io_debug_regFileRs2Data [31:0] $end
  $var wire 32 Q io_debug_immGenImmidiate [31:0] $end
  $var wire 32 R io_debug_adderResult [31:0] $end
  $scope module FutureCore $end
   $var wire 1 D clock $end
   $var wire 1 E reset $end
   $var wire 32 F io_instIn [31:0] $end
   $var wire 32 G io_instAddrOut [31:0] $end
   $var wire 32 G io_debug_pcInstAddr [31:0] $end
   $var wire 5 I io_debug_instDecRs1 [4:0] $end
   $var wire 5 J io_debug_instDecRs2 [4:0] $end
   $var wire 5 K io_debug_instDecRd [4:0] $end
   $var wire 1 L io_debug_instDecWriteEnable $end
   $var wire 1 L io_debug_instDecIsImmidiate $end
   $var wire 1 N io_debug_instDecIsEbreak $end
   $var wire 32 O io_debug_regFileRs1Data [31:0] $end
   $var wire 32 P io_debug_regFileRs2Data [31:0] $end
   $var wire 32 Q io_debug_immGenImmidiate [31:0] $end
   $var wire 32 R io_debug_adderResult [31:0] $end
   $scope module adder $end
    $var wire 32 O io_operand1 [31:0] $end
    $var wire 32 S io_operand2 [31:0] $end
    $var wire 32 R io_result [31:0] $end
   $upscope $end
   $scope module ebreakDPI $end
    $var wire 1 D clock $end
    $var wire 1 E reset $end
    $var wire 1 N isEbreak $end
   $upscope $end
   $scope module immGen $end
    $var wire 32 F io_inst [31:0] $end
    $var wire 32 Q io_immidiate [31:0] $end
   $upscope $end
   $scope module instDec $end
    $var wire 32 F io_inst [31:0] $end
    $var wire 5 I io_rs1 [4:0] $end
    $var wire 5 J io_rs2 [4:0] $end
    $var wire 5 K io_rd [4:0] $end
    $var wire 1 L io_writeEnable $end
    $var wire 1 L io_isImmidiate $end
    $var wire 1 N io_isEbreak $end
   $upscope $end
   $scope module pc $end
    $var wire 1 D clock $end
    $var wire 1 E reset $end
    $var wire 32 G io_instAddr [31:0] $end
    $var wire 32 # pc [31:0] $end
   $upscope $end
   $scope module regFile $end
    $var wire 1 D clock $end
    $var wire 5 I io_rs1Addr [4:0] $end
    $var wire 5 J io_rs2Addr [4:0] $end
    $var wire 1 L io_writeEnable $end
    $var wire 5 K io_rdAddr [4:0] $end
    $var wire 32 R io_rdData [31:0] $end
    $var wire 32 O io_rs1Data [31:0] $end
    $var wire 32 P io_rs2Data [31:0] $end
    $scope module regBank_ext $end
     $var wire 5 I R0_addr [4:0] $end
     $var wire 1 W R0_en $end
     $var wire 1 D R0_clk $end
     $var wire 5 J R1_addr [4:0] $end
     $var wire 1 W R1_en $end
     $var wire 1 D R1_clk $end
     $var wire 5 K W0_addr [4:0] $end
     $var wire 1 L W0_en $end
     $var wire 1 D W0_clk $end
     $var wire 32 T W0_data [31:0] $end
     $var wire 32 U R0_data [31:0] $end
     $var wire 32 V R1_data [31:0] $end
     $var wire 32 $ Memory[0] [31:0] $end
     $var wire 32 % Memory[1] [31:0] $end
     $var wire 32 & Memory[2] [31:0] $end
     $var wire 32 ' Memory[3] [31:0] $end
     $var wire 32 ( Memory[4] [31:0] $end
     $var wire 32 ) Memory[5] [31:0] $end
     $var wire 32 * Memory[6] [31:0] $end
     $var wire 32 + Memory[7] [31:0] $end
     $var wire 32 , Memory[8] [31:0] $end
     $var wire 32 - Memory[9] [31:0] $end
     $var wire 32 . Memory[10] [31:0] $end
     $var wire 32 / Memory[11] [31:0] $end
     $var wire 32 0 Memory[12] [31:0] $end
     $var wire 32 1 Memory[13] [31:0] $end
     $var wire 32 2 Memory[14] [31:0] $end
     $var wire 32 3 Memory[15] [31:0] $end
     $var wire 32 4 Memory[16] [31:0] $end
     $var wire 32 5 Memory[17] [31:0] $end
     $var wire 32 6 Memory[18] [31:0] $end
     $var wire 32 7 Memory[19] [31:0] $end
     $var wire 32 8 Memory[20] [31:0] $end
     $var wire 32 9 Memory[21] [31:0] $end
     $var wire 32 : Memory[22] [31:0] $end
     $var wire 32 ; Memory[23] [31:0] $end
     $var wire 32 < Memory[24] [31:0] $end
     $var wire 32 = Memory[25] [31:0] $end
     $var wire 32 > Memory[26] [31:0] $end
     $var wire 32 ? Memory[27] [31:0] $end
     $var wire 32 @ Memory[28] [31:0] $end
     $var wire 32 A Memory[29] [31:0] $end
     $var wire 32 B Memory[30] [31:0] $end
     $var wire 32 C Memory[31] [31:0] $end
    $upscope $end
   $upscope $end
  $upscope $end
 $upscope $end
$enddefinitions $end


#1
b00000000000000000000000000000000 #
b00000000000000000000000000000000 $
b00000000000000000000000000000000 %
b00000000000000000000000000000000 &
b00000000000000000000000000000000 '
b00000000000000000000000000000000 (
b00000000000000000000000000000000 )
b00000000000000000000000000000000 *
b00000000000000000000000000000000 +
b00000000000000000000000000000000 ,
b00000000000000000000000000000000 -
b00000000000000000000000000000000 .
b00000000000000000000000000000000 /
b00000000000000000000000000000000 0
b00000000000000000000000000000000 1
b00000000000000000000000000000000 2
b00000000000000000000000000000000 3
b00000000000000000000000000000000 4
b00000000000000000000000000000000 5
b00000000000000000000000000000000 6
b00000000000000000000000000000000 7
b00000000000000000000000000000000 8
b00000000000000000000000000000000 9
b00000000000000000000000000000000 :
b00000000000000000000000000000000 ;
b00000000000000000000000000000000 <
b00000000000000000000000000000000 =
b00000000000000000000000000000000 >
b00000000000000000000000000000000 ?
b00000000000000000000000000000000 @
b00000000000000000000000000000000 A
b00000000000000000000000000000000 B
b00000000000000000000000000000000 C
1D
0E
b00000000000000000000000000000000 F
b00000000000000000000000000000000 G
b00000000000000000000000000000000 H
b00000 I
b00000 J
b00000 K
0L
0M
0N
b00000000000000000000000000000000 O
b00000000000000000000000000000000 P
b00000000000000000000000000000000 Q
b00000000000000000000000000000000 R
b00000000000000000000000000000000 S
b00000000000000000000000000000000 T
b00000000000000000000000000000000 U
b00000000000000000000000000000000 V
1W
#2
0D
#3
b10000000000000000000000000000000 #
1D
1E
b10000000000000000000000000000000 G
b10000000000000000000000000000000 H
#4
0D
#5
1D
#6
0D
#7
1D
#8
0D
#9
1D
#10
0D
#11
b10000000000000000000000000000100 #
b00000000000000000000001111101000 %
1D
0E
b00111110100000000000000010010011 F
b10000000000000000000000000000100 G
b10000000000000000000000000000100 H
b01000 J
b00001 K
1L
1M
b00000000000000000000001111101000 Q
b00000000000000000000001111101000 R
b00000000000000000000001111101000 S
b00000000000000000000001111101000 T
#12
0D
#13
b10000000000000000000000000001000 #
b00000000000000000000101110111000 &
1D
b01111101000000001000000100010011 F
b10000000000000000000000000001000 G
b10000000000000000000000000001000 H
b00001 I
b10000 J
b00010 K
b00000000000000000000001111101000 O
b00000000000000000000011111010000 Q
b00000000000000000000101110111000 R
b00000000000000000000011111010000 S
b00000000000000000000101110111000 T
b00000000000000000000001111101000 U
#14
0D
#15
b10000000000000000000000000001100 #
b00000000000000000000011111010000 '
1D
b11000001100000010000000110010011 F
b10000000000000000000000000001100 G
b10000000000000000000000000001100 H
b00010 I
b11000 J
b00011 K
b00000000000000000000101110111000 O
b11111111111111111111110000011000 Q
b00000000000000000000011111010000 R
b11111111111111111111110000011000 S
b00000000000000000000011111010000 T
b00000000000000000000101110111000 U
#16
0D
#17
b10000000000000000000000000010000 #
1D
b10000011000000011000001000010011 F
b10000000000000000000000000010000 G
b10000000000000000000000000010000 H
b00011 I
b10000 J
b00100 K
b00000000000000000000011111010000 O
b11111111111111111111100000110000 Q
b00000000000000000000000000000000 R
b11111111111111111111100000110000 S
b00000000000000000000000000000000 T
b00000000000000000000011111010000 U
#18
0D
#19
b10000000000000000000000000010100 #
b00000000000000000000001111101000 )
1D
b00111110100000100000001010010011 F
b10000000000000000000000000010100 G
b10000000000000000000000000010100 H
b00100 I
b01000 J
b00101 K
b00000000000000000000000000000000 O
b00000000000000000000001111101000 Q
b00000000000000000000001111101000 R
b00000000000000000000001111101000 S
b00000000000000000000001111101000 T
b00000000000000000000000000000000 U
#20
0D
#21
b10000000000000000000000000011000 #
1D
b00000000000100000000000001110011 F
b10000000000000000000000000011000 G
b10000000000000000000000000011000 H
b00000 I
b00001 J
b00000 K
0L
0M
1N
b00000000000000000000001111101000 P
b00000000000000000000000000000001 Q
b00000000000000000000000000000000 T
b00000000000000000000001111101000 V
#22
0D
#23
b10000000000000000000000000011100 #
1D
b00000000000000000000000000000000 F
b10000000000000000000000000011100 G
b10000000000000000000000000011100 H
b00000 J
0N
b00000000000000000000000000000000 P
b00000000000000000000000000000000 Q
b00000000000000000000000000000000 R
b00000000000000000000000000000000 S
b00000000000000000000000000000000 V
#24
0D
#25
b10000000000000000000000000100000 #
1D
b10000000000000000000000000100000 G
b10000000000000000000000000100000 H
#26
0D
#27
b10000000000000000000000000100100 #
1D
b10000000000000000000000000100100 G
b10000000000000000000000000100100 H
#28
0D
#29
b10000000000000000000000000101000 #
1D
b10000000000000000000000000101000 G
b10000000000000000000000000101000 H
#30
0D
#31
b10000000000000000000000000101100 #
1D
b10000000000000000000000000101100 G
b10000000000000000000000000101100 H
#32
0D
#33
b10000000000000000000000000110000 #
1D
b10000000000000000000000000110000 G
b10000000000000000000000000110000 H
#34
0D
#35
b10000000000000000000000000110100 #
1D
b10000000000000000000000000110100 G
b10000000000000000000000000110100 H
#36
0D
#37
b10000000000000000000000000111000 #
1D
b10000000000000000000000000111000 G
b10000000000000000000000000111000 H
#38
0D
#39
b10000000000000000000000000111100 #
1D
b10000000000000000000000000111100 G
b10000000000000000000000000111100 H
#40
0D
#41
b10000000000000000000000001000000 #
1D
b10000000000000000000000001000000 G
b10000000000000000000000001000000 H
#42
0D
#43
b10000000000000000000000001000100 #
1D
b10000000000000000000000001000100 G
b10000000000000000000000001000100 H
#44
0D
#45
b10000000000000000000000001001000 #
1D
b10000000000000000000000001001000 G
b10000000000000000000000001001000 H
#46
0D
#47
b10000000000000000000000001001100 #
1D
b10000000000000000000000001001100 G
b10000000000000000000000001001100 H
#48
0D
#49
b10000000000000000000000001010000 #
1D
b10000000000000000000000001010000 G
b10000000000000000000000001010000 H
#50
0D
#51
b10000000000000000000000001010100 #
1D
b10000000000000000000000001010100 G
b10000000000000000000000001010100 H
#52
0D
#53
b10000000000000000000000001011000 #
1D
b10000000000000000000000001011000 G
b10000000000000000000000001011000 H
#54
0D
#55
b10000000000000000000000001011100 #
1D
b10000000000000000000000001011100 G
b10000000000000000000000001011100 H
#56
0D
#57
b10000000000000000000000001100000 #
1D
b10000000000000000000000001100000 G
b10000000000000000000000001100000 H
#58
0D
#59
b10000000000000000000000001100100 #
1D
b10000000000000000000000001100100 G
b10000000000000000000000001100100 H
#60
0D
#61
b10000000000000000000000001101000 #
1D
b10000000000000000000000001101000 G
b10000000000000000000000001101000 H
#62
0D
#63
b10000000000000000000000001101100 #
1D
b10000000000000000000000001101100 G
b10000000000000000000000001101100 H
#64
0D
#65
b10000000000000000000000001110000 #
1D
b10000000000000000000000001110000 G
b10000000000000000000000001110000 H
#66
0D
#67
b10000000000000000000000001110100 #
1D
b10000000000000000000000001110100 G
b10000000000000000000000001110100 H
#68
0D
#69
b10000000000000000000000001111000 #
1D
b10000000000000000000000001111000 G
b10000000000000000000000001111000 H
#70
0D
#71
b10000000000000000000000001111100 #
1D
b10000000000000000000000001111100 G
b10000000000000000000000001111100 H
#72
0D
#73
b10000000000000000000000010000000 #
1D
b10000000000000000000000010000000 G
b10000000000000000000000010000000 H
#74
0D
#75
b10000000000000000000000010000100 #
1D
b10000000000000000000000010000100 G
b10000000000000000000000010000100 H
#76
0D
#77
b10000000000000000000000010001000 #
1D
b10000000000000000000000010001000 G
b10000000000000000000000010001000 H
#78
0D
#79
b10000000000000000000000010001100 #
1D
b10000000000000000000000010001100 G
b10000000000000000000000010001100 H
#80
0D
#81
b10000000000000000000000010010000 #
1D
b10000000000000000000000010010000 G
b10000000000000000000000010010000 H
#82
0D
#83
b10000000000000000000000010010100 #
1D
b10000000000000000000000010010100 G
b10000000000000000000000010010100 H
#84
0D
#85
b10000000000000000000000010011000 #
1D
b10000000000000000000000010011000 G
b10000000000000000000000010011000 H
#86
0D
#87
b10000000000000000000000010011100 #
1D
b10000000000000000000000010011100 G
b10000000000000000000000010011100 H
#88
0D
#89
b10000000000000000000000010100000 #
1D
b10000000000000000000000010100000 G
b10000000000000000000000010100000 H
#90
0D
#91
b10000000000000000000000010100100 #
1D
b10000000000000000000000010100100 G
b10000000000000000000000010100100 H
#92
0D
#93
b10000000000000000000000010101000 #
1D
b10000000000000000000000010101000 G
b10000000000000000000000010101000 H
#94
0D
#95
b10000000000000000000000010101100 #
1D
b10000000000000000000000010101100 G
b10000000000000000000000010101100 H
#96
0D
#97
b10000000000000000000000010110000 #
1D
b10000000000000000000000010110000 G
b10000000000000000000000010110000 H
#98
0D
#99
b10000000000000000000000010110100 #
1D
b10000000000000000000000010110100 G
b10000000000000000000000010110100 H
